\relax 
\@writefile{toc}{\contentsline {section}{\numberline {1}Part}{1}}
\@writefile{toc}{\contentsline {subsection}{\numberline {1.1}Exploration of the dataset}{1}}
\@writefile{toc}{\contentsline {subsection}{\numberline {1.2}Feature selection}{2}}
\@writefile{toc}{\contentsline {section}{\numberline {2}Part}{3}}
\@writefile{toc}{\contentsline {subsection}{\numberline {2.1}Simple Linear regression}{3}}
\@writefile{toc}{\contentsline {subsection}{\numberline {2.2}Multivariate Linear Regression}{4}}
